Library/Bee/artifacts/mvdfrm/Unity.2D.Common.Runtime.ref.dll_E5EF155FD2A9DC14.mvfrm
Library/Bee/artifacts/mvdfrm/Unity.Burst.ref.dll_14316E70964BB953.mvfrm
Library/Bee/artifacts/mvdfrm/Unity.InternalAPIEngineBridge.001.ref.dll_9031ADE18CD0CF4E.mvfrm
Library/Bee/artifacts/mvdfrm/Unity.Mathematics.ref.dll_14D1A32168A0AD59.mvfrm
Library/Bee/artifacts/mvdfrm/UnityEngine.UI.ref.dll_FAE6DBEA21006BE5.mvfrm
Library/Bee/artifacts/mvdfrm/Unity.Burst.Cecil.Mdb.dll_CEB17EDBB00583AC.mvfrm
Library/Bee/artifacts/mvdfrm/Unity.Burst.Cecil.Pdb.dll_E603F74B2EBA852F.mvfrm
Library/Bee/artifacts/mvdfrm/Unity.Burst.Cecil.Rocks.dll_3BADDF6F5161112F.mvfrm
Library/Bee/artifacts/mvdfrm/Unity.Burst.Cecil.dll_B327999F8A460CAF.mvfrm
Library/Bee/artifacts/mvdfrm/Unity.Burst.Unsafe.dll_7F81F8182BDC6634.mvfrm
Library/Bee/artifacts/mvdfrm/Unity.VisualScripting.Antlr3.Runtime.dll_6DEDC3EE579495EB.mvfrm
Library/Bee/artifacts/mvdfrm/UnityEngine.AIModule.dll_234E4EF3868C596C.mvfrm
Library/Bee/artifacts/mvdfrm/UnityEngine.ARModule.dll_DCC113F6E3A9B835.mvfrm
Library/Bee/artifacts/mvdfrm/UnityEngine.AccessibilityModule.dll_696B51C7C600A7AE.mvfrm
Library/Bee/artifacts/mvdfrm/UnityEngine.AndroidJNIModule.dll_51EC505D520BD52A.mvfrm
Library/Bee/artifacts/mvdfrm/UnityEngine.AnimationModule.dll_52CEC8DD2EA6EAD4.mvfrm
Library/Bee/artifacts/mvdfrm/UnityEngine.AssetBundleModule.dll_C053D6FC46AF6482.mvfrm
Library/Bee/artifacts/mvdfrm/UnityEngine.AudioModule.dll_2C523CF4547B76C6.mvfrm
Library/Bee/artifacts/mvdfrm/UnityEngine.ClothModule.dll_933A99EF2E9855AA.mvfrm
Library/Bee/artifacts/mvdfrm/UnityEngine.ClusterInputModule.dll_575904B8F8D0EB94.mvfrm
Library/Bee/artifacts/mvdfrm/UnityEngine.ClusterRendererModule.dll_DC35C28F4E8700AD.mvfrm
Library/Bee/artifacts/mvdfrm/UnityEngine.CoreModule.dll_82E30331A7B2C943.mvfrm
Library/Bee/artifacts/mvdfrm/UnityEngine.CrashReportingModule.dll_626F17AAE26044BB.mvfrm
Library/Bee/artifacts/mvdfrm/UnityEngine.DSPGraphModule.dll_518C181E4BAEA141.mvfrm
Library/Bee/artifacts/mvdfrm/UnityEngine.DirectorModule.dll_4C3AB6B4D94DD020.mvfrm
Library/Bee/artifacts/mvdfrm/UnityEngine.GIModule.dll_BB8A9801223B4186.mvfrm
Library/Bee/artifacts/mvdfrm/UnityEngine.GameCenterModule.dll_7C399A78184CC61B.mvfrm
Library/Bee/artifacts/mvdfrm/UnityEngine.GridModule.dll_60541F1FC0075F3A.mvfrm
Library/Bee/artifacts/mvdfrm/UnityEngine.HotReloadModule.dll_D41786E309DA0656.mvfrm
Library/Bee/artifacts/mvdfrm/UnityEngine.IMGUIModule.dll_64B1DC5B1AAD0AA7.mvfrm
Library/Bee/artifacts/mvdfrm/UnityEngine.ImageConversionModule.dll_4827C03FD0ABB8A1.mvfrm
Library/Bee/artifacts/mvdfrm/UnityEngine.InputLegacyModule.dll_5198F21ADEA11A73.mvfrm
Library/Bee/artifacts/mvdfrm/UnityEngine.InputModule.dll_92C804A4CAB39B6A.mvfrm
Library/Bee/artifacts/mvdfrm/UnityEngine.JSONSerializeModule.dll_C982DB03C53C0838.mvfrm
Library/Bee/artifacts/mvdfrm/UnityEngine.LocalizationModule.dll_95A5CF0B904CDE8D.mvfrm
Library/Bee/artifacts/mvdfrm/UnityEngine.ParticleSystemModule.dll_B58160F75071D049.mvfrm
Library/Bee/artifacts/mvdfrm/UnityEngine.PerformanceReportingModule.dll_CD6BD8233A8E6102.mvfrm
Library/Bee/artifacts/mvdfrm/UnityEngine.Physics2DModule.dll_9F74B8CDCFA3E269.mvfrm
Library/Bee/artifacts/mvdfrm/UnityEngine.PhysicsModule.dll_4F599748CC225657.mvfrm
Library/Bee/artifacts/mvdfrm/UnityEngine.ProfilerModule.dll_7E80EFEB72A7572D.mvfrm
Library/Bee/artifacts/mvdfrm/UnityEngine.RuntimeInitializeOnLoadManagerInitializerModule.dll_DB5D6DE483D7A532.mvfrm
Library/Bee/artifacts/mvdfrm/UnityEngine.ScreenCaptureModule.dll_E36A8888D9A8349A.mvfrm
Library/Bee/artifacts/mvdfrm/UnityEngine.SharedInternalsModule.dll_CC38FF1547D9B3F1.mvfrm
Library/Bee/artifacts/mvdfrm/UnityEngine.SpriteMaskModule.dll_65660D0839BC5B95.mvfrm
Library/Bee/artifacts/mvdfrm/UnityEngine.SpriteShapeModule.dll_D9B50456FC519C8C.mvfrm
Library/Bee/artifacts/mvdfrm/UnityEngine.StreamingModule.dll_0763B62D7E2EA212.mvfrm
Library/Bee/artifacts/mvdfrm/UnityEngine.SubstanceModule.dll_E40ECA76C981A020.mvfrm
Library/Bee/artifacts/mvdfrm/UnityEngine.SubsystemsModule.dll_D013736A080443A8.mvfrm
Library/Bee/artifacts/mvdfrm/UnityEngine.TLSModule.dll_CAC44017F7F8B96B.mvfrm
Library/Bee/artifacts/mvdfrm/UnityEngine.TerrainModule.dll_69A012B7A1E09F45.mvfrm
Library/Bee/artifacts/mvdfrm/UnityEngine.TerrainPhysicsModule.dll_B5FC09CA69B4CAD6.mvfrm
Library/Bee/artifacts/mvdfrm/UnityEngine.TextCoreFontEngineModule.dll_3C8C3339612BB361.mvfrm
Library/Bee/artifacts/mvdfrm/UnityEngine.TextCoreTextEngineModule.dll_847469AAF0AF6C7F.mvfrm
Library/Bee/artifacts/mvdfrm/UnityEngine.TextRenderingModule.dll_0CA9FA9390DFB48F.mvfrm
Library/Bee/artifacts/mvdfrm/UnityEngine.TilemapModule.dll_089C7A38B99D804E.mvfrm
Library/Bee/artifacts/mvdfrm/UnityEngine.UIElementsModule.dll_D451D4D20B307F9F.mvfrm
Library/Bee/artifacts/mvdfrm/UnityEngine.UIElementsNativeModule.dll_02B32EF369AFCD96.mvfrm
Library/Bee/artifacts/mvdfrm/UnityEngine.UIModule.dll_1EC1ED20E2D35F18.mvfrm
Library/Bee/artifacts/mvdfrm/UnityEngine.UNETModule.dll_15894B1AF4C1BEBC.mvfrm
Library/Bee/artifacts/mvdfrm/UnityEngine.UmbraModule.dll_A726E90CE1A22239.mvfrm
Library/Bee/artifacts/mvdfrm/UnityEngine.UnityAnalyticsModule.dll_D520D1C0FC992245.mvfrm
Library/Bee/artifacts/mvdfrm/UnityEngine.UnityConnectModule.dll_C51C13B241D11979.mvfrm
Library/Bee/artifacts/mvdfrm/UnityEngine.UnityCurlModule.dll_85EB6A0E9EBADCC1.mvfrm
Library/Bee/artifacts/mvdfrm/UnityEngine.UnityTestProtocolModule.dll_05FD3855167451AF.mvfrm
Library/Bee/artifacts/mvdfrm/UnityEngine.UnityWebRequestAssetBundleModule.dll_88F116BEDFEDF0D6.mvfrm
Library/Bee/artifacts/mvdfrm/UnityEngine.UnityWebRequestAudioModule.dll_45682C01C0F92B9A.mvfrm
Library/Bee/artifacts/mvdfrm/UnityEngine.UnityWebRequestModule.dll_59C6C7E9DBA05320.mvfrm
Library/Bee/artifacts/mvdfrm/UnityEngine.UnityWebRequestTextureModule.dll_3ED56B0F19D298AF.mvfrm
Library/Bee/artifacts/mvdfrm/UnityEngine.UnityWebRequestWWWModule.dll_4F36AF06E06F28EB.mvfrm
Library/Bee/artifacts/mvdfrm/UnityEngine.VFXModule.dll_4BA2D886CE6622D8.mvfrm
Library/Bee/artifacts/mvdfrm/UnityEngine.VRModule.dll_719413A6848DE490.mvfrm
Library/Bee/artifacts/mvdfrm/UnityEngine.VehiclesModule.dll_C3FDB03453779FBB.mvfrm
Library/Bee/artifacts/mvdfrm/UnityEngine.VideoModule.dll_515BC15F170D926B.mvfrm
Library/Bee/artifacts/mvdfrm/UnityEngine.VirtualTexturingModule.dll_273FE362425E4E21.mvfrm
Library/Bee/artifacts/mvdfrm/UnityEngine.WindModule.dll_F931DE5A38E947AC.mvfrm
Library/Bee/artifacts/mvdfrm/UnityEngine.XRModule.dll_A452D6AB0DC831EE.mvfrm
Library/Bee/artifacts/mvdfrm/UnityEngine.dll_038F592ECA1B7CE2.mvfrm