Library/Bee/artifacts/mvdfrm/UnityEngine.UI.ref.dll_F37DC0DEF554539B.mvfrm
Library/Bee/artifacts/mvdfrm/Unity.Burst.Cecil.Mdb.dll_CEB17EDBB00583AC.mvfrm
Library/Bee/artifacts/mvdfrm/Unity.Burst.Cecil.Pdb.dll_E603F74B2EBA852F.mvfrm
Library/Bee/artifacts/mvdfrm/Unity.Burst.Cecil.Rocks.dll_3BADDF6F5161112F.mvfrm
Library/Bee/artifacts/mvdfrm/Unity.Burst.Cecil.dll_B327999F8A460CAF.mvfrm
Library/Bee/artifacts/mvdfrm/Unity.Burst.Unsafe.dll_7F81F8182BDC6634.mvfrm
Library/Bee/artifacts/mvdfrm/Unity.VisualScripting.Antlr3.Runtime.dll_6DEDC3EE579495EB.mvfrm
Library/Bee/artifacts/mvdfrm/UnityEngine.AIModule.dll_0FB735F178EA509D.mvfrm
Library/Bee/artifacts/mvdfrm/UnityEngine.AccessibilityModule.dll_997989ACE2574E4D.mvfrm
Library/Bee/artifacts/mvdfrm/UnityEngine.AndroidJNIModule.dll_74D54C72149C64DB.mvfrm
Library/Bee/artifacts/mvdfrm/UnityEngine.AnimationModule.dll_C7AF5FA9910051B3.mvfrm
Library/Bee/artifacts/mvdfrm/UnityEngine.AssetBundleModule.dll_5BAD2AE828E2ED41.mvfrm
Library/Bee/artifacts/mvdfrm/UnityEngine.AudioModule.dll_0C45B65ABECD8DE5.mvfrm
Library/Bee/artifacts/mvdfrm/UnityEngine.ClothModule.dll_732E135598EA6CC9.mvfrm
Library/Bee/artifacts/mvdfrm/UnityEngine.ClusterInputModule.dll_50DB0BF61E56CB65.mvfrm
Library/Bee/artifacts/mvdfrm/UnityEngine.ClusterRendererModule.dll_DAE40D4D8C81412C.mvfrm
Library/Bee/artifacts/mvdfrm/UnityEngine.CoreModule.dll_4D0BCDEAE5860094.mvfrm
Library/Bee/artifacts/mvdfrm/UnityEngine.CrashReportingModule.dll_12ABF5B648D4B8AC.mvfrm
Library/Bee/artifacts/mvdfrm/UnityEngine.DSPGraphModule.dll_84C70B69A8C2A4D2.mvfrm
Library/Bee/artifacts/mvdfrm/UnityEngine.DirectorModule.dll_7F75AA003661D3B1.mvfrm
Library/Bee/artifacts/mvdfrm/UnityEngine.GIModule.dll_A7F37EFF149938B7.mvfrm
Library/Bee/artifacts/mvdfrm/UnityEngine.GameCenterModule.dll_9F22968CDADD55CC.mvfrm
Library/Bee/artifacts/mvdfrm/UnityEngine.GridModule.dll_2A7CE9D8FDDA968B.mvfrm
Library/Bee/artifacts/mvdfrm/UnityEngine.HotReloadModule.dll_48F81DAF6C336D35.mvfrm
Library/Bee/artifacts/mvdfrm/UnityEngine.IMGUIModule.dll_44A555C184FF21C6.mvfrm
Library/Bee/artifacts/mvdfrm/UnityEngine.ImageConversionModule.dll_46D60AFE0EA5F920.mvfrm
Library/Bee/artifacts/mvdfrm/UnityEngine.InputLegacyModule.dll_ECF24606C0D4A332.mvfrm
Library/Bee/artifacts/mvdfrm/UnityEngine.InputModule.dll_72BB7E0B3505B289.mvfrm
Library/Bee/artifacts/mvdfrm/UnityEngine.JSONSerializeModule.dll_F99112E8E192AED7.mvfrm
Library/Bee/artifacts/mvdfrm/UnityEngine.LocalizationModule.dll_8F27D648B5D2BE5E.mvfrm
Library/Bee/artifacts/mvdfrm/UnityEngine.ParticleSystemModule.dll_65BE3F02B6E6443A.mvfrm
Library/Bee/artifacts/mvdfrm/UnityEngine.PerformanceReportingModule.dll_197AA3182C9B2953.mvfrm
Library/Bee/artifacts/mvdfrm/UnityEngine.Physics2DModule.dll_14554F9A31FD4948.mvfrm
Library/Bee/artifacts/mvdfrm/UnityEngine.PhysicsModule.dll_986989BEF7A31756.mvfrm
Library/Bee/artifacts/mvdfrm/UnityEngine.ProfilerModule.dll_B1BBE336CFBB5ABE.mvfrm
Library/Bee/artifacts/mvdfrm/UnityEngine.RuntimeInitializeOnLoadManagerInitializerModule.dll_5352CC9365B14A11.mvfrm
Library/Bee/artifacts/mvdfrm/UnityEngine.ScreenCaptureModule.dll_1378C06DF5FEDB39.mvfrm
Library/Bee/artifacts/mvdfrm/UnityEngine.SharedInternalsModule.dll_CAE749D385D3F470.mvfrm
Library/Bee/artifacts/mvdfrm/UnityEngine.SpriteMaskModule.dll_884F091CFC4CEB46.mvfrm
Library/Bee/artifacts/mvdfrm/UnityEngine.SpriteShapeModule.dll_750E5842DE85254B.mvfrm
Library/Bee/artifacts/mvdfrm/UnityEngine.StreamingModule.dll_7C444CF9E08808F1.mvfrm
Library/Bee/artifacts/mvdfrm/UnityEngine.SubstanceModule.dll_58EF61432BDB06FF.mvfrm
Library/Bee/artifacts/mvdfrm/UnityEngine.SubsystemsModule.dll_F2FC6F7ECA94D359.mvfrm
Library/Bee/artifacts/mvdfrm/UnityEngine.TLSModule.dll_EF38122F835EA2AA.mvfrm
Library/Bee/artifacts/mvdfrm/UnityEngine.TerrainModule.dll_B2B0052DCD616044.mvfrm
Library/Bee/artifacts/mvdfrm/UnityEngine.TerrainPhysicsModule.dll_6638E7D5D0293EC7.mvfrm
Library/Bee/artifacts/mvdfrm/UnityEngine.TextCoreFontEngineModule.dll_5401E33EA8BB1B92.mvfrm
Library/Bee/artifacts/mvdfrm/UnityEngine.TextCoreTextEngineModule.dll_9BEA19B0383ED4B0.mvfrm
Library/Bee/artifacts/mvdfrm/UnityEngine.TextRenderingModule.dll_3CB83278AD365B2E.mvfrm
Library/Bee/artifacts/mvdfrm/UnityEngine.TilemapModule.dll_51AC6CAEE51E414D.mvfrm
Library/Bee/artifacts/mvdfrm/UnityEngine.UIElementsModule.dll_F73AD0E6CDC10F50.mvfrm
Library/Bee/artifacts/mvdfrm/UnityEngine.UIElementsNativeModule.dll_D5092C2F9C9C99A7.mvfrm
Library/Bee/artifacts/mvdfrm/UnityEngine.UIModule.dll_0B2AD41ED5315649.mvfrm
Library/Bee/artifacts/mvdfrm/UnityEngine.UNETModule.dll_DFB215D43294F60D.mvfrm
Library/Bee/artifacts/mvdfrm/UnityEngine.UmbraModule.dll_871A62734BF43958.mvfrm
Library/Bee/artifacts/mvdfrm/UnityEngine.UnityAnalyticsModule.dll_855DAFCC630D9636.mvfrm
Library/Bee/artifacts/mvdfrm/UnityEngine.UnityConnectModule.dll_BE9E1AEF6756F94A.mvfrm
Library/Bee/artifacts/mvdfrm/UnityEngine.UnityCurlModule.dll_FACC00DB011443A0.mvfrm
Library/Bee/artifacts/mvdfrm/UnityEngine.UnityTestProtocolModule.dll_2B45198024BA280E.mvfrm
Library/Bee/artifacts/mvdfrm/UnityEngine.UnityWebRequestAssetBundleModule.dll_B7228FB687687187.mvfrm
Library/Bee/artifacts/mvdfrm/UnityEngine.UnityWebRequestAudioModule.dll_9176F6F6B305F3EB.mvfrm
Library/Bee/artifacts/mvdfrm/UnityEngine.UnityWebRequestModule.dll_587512A8199A939F.mvfrm
Library/Bee/artifacts/mvdfrm/UnityEngine.UnityWebRequestTextureModule.dll_8558A3C4ECF80520.mvfrm
Library/Bee/artifacts/mvdfrm/UnityEngine.UnityWebRequestWWWModule.dll_66AC5F0C27FE911C.mvfrm
Library/Bee/artifacts/mvdfrm/UnityEngine.VFXModule.dll_7016AA9E59CC0C17.mvfrm
Library/Bee/artifacts/mvdfrm/UnityEngine.VRModule.dll_5DFCFAA476EBDBC1.mvfrm
Library/Bee/artifacts/mvdfrm/UnityEngine.VehiclesModule.dll_F738A37FB08BA34C.mvfrm
Library/Bee/artifacts/mvdfrm/UnityEngine.VideoModule.dll_314F3AC5815FA98A.mvfrm
Library/Bee/artifacts/mvdfrm/UnityEngine.VirtualTexturingModule.dll_F995E09E754B1A32.mvfrm
Library/Bee/artifacts/mvdfrm/UnityEngine.WindModule.dll_C35AA91376BC7EFD.mvfrm
Library/Bee/artifacts/mvdfrm/UnityEngine.XRModule.dll_90BBBDA90026291F.mvfrm
Library/Bee/artifacts/mvdfrm/UnityEngine.dll_CC93A342CD4344C1.mvfrm