Library/Bee/artifacts/mvdfrm/Unity.Burst.Cecil.Mdb.dll_CEB17EDBB00583AC.mvfrm
Library/Bee/artifacts/mvdfrm/Unity.Burst.Cecil.Pdb.dll_E603F74B2EBA852F.mvfrm
Library/Bee/artifacts/mvdfrm/Unity.Burst.Cecil.Rocks.dll_3BADDF6F5161112F.mvfrm
Library/Bee/artifacts/mvdfrm/Unity.Burst.Cecil.dll_B327999F8A460CAF.mvfrm
Library/Bee/artifacts/mvdfrm/Unity.Burst.Unsafe.dll_7F81F8182BDC6634.mvfrm
Library/Bee/artifacts/mvdfrm/Unity.Plastic.Antlr3.Runtime.dll_FA86541AD7C23D03.mvfrm
Library/Bee/artifacts/mvdfrm/Unity.Plastic.Newtonsoft.Json.dll_1B65B9A7BF283282.mvfrm
Library/Bee/artifacts/mvdfrm/Unity.VisualScripting.IonicZip.dll_BCD321A6D47B41B0.mvfrm
Library/Bee/artifacts/mvdfrm/Unity.VisualScripting.YamlDotNet.dll_BC809D0D26CB85CC.mvfrm
Library/Bee/artifacts/mvdfrm/Unity.VisualScripting.TextureAssets.dll_539EC660E798E3C4.mvfrm
Library/Bee/artifacts/mvdfrm/Unity.VisualScripting.Antlr3.Runtime.dll_6DEDC3EE579495EB.mvfrm
Library/Bee/artifacts/mvdfrm/UnityEditor.Graphs.dll_0CCD52835E685848.mvfrm
Library/Bee/artifacts/mvdfrm/UnityEditor.CoreModule.dll_848A33DEA2356416.mvfrm
Library/Bee/artifacts/mvdfrm/UnityEditor.DeviceSimulatorModule.dll_3B25279381477F8B.mvfrm
Library/Bee/artifacts/mvdfrm/UnityEditor.DiagnosticsModule.dll_AA9B92811C285719.mvfrm
Library/Bee/artifacts/mvdfrm/UnityEditor.GraphViewModule.dll_0AB2E8A350C411D0.mvfrm
Library/Bee/artifacts/mvdfrm/UnityEditor.PackageManagerUIModule.dll_36A668403FA2B1F2.mvfrm
Library/Bee/artifacts/mvdfrm/UnityEditor.QuickSearchModule.dll_35AB138E74FF5372.mvfrm
Library/Bee/artifacts/mvdfrm/UnityEditor.SceneTemplateModule.dll_2EF2421550815433.mvfrm
Library/Bee/artifacts/mvdfrm/UnityEditor.TextCoreFontEngineModule.dll_D52023985D55E4D4.mvfrm
Library/Bee/artifacts/mvdfrm/UnityEditor.TextCoreTextEngineModule.dll_1D085A09ECD99DF2.mvfrm
Library/Bee/artifacts/mvdfrm/UnityEditor.UIBuilderModule.dll_5F3B95BFC37C8B04.mvfrm
Library/Bee/artifacts/mvdfrm/UnityEditor.UIElementsModule.dll_3EA1FE7DAA79B792.mvfrm
Library/Bee/artifacts/mvdfrm/UnityEditor.UIElementsSamplesModule.dll_951A48422D1EC8FB.mvfrm
Library/Bee/artifacts/mvdfrm/UnityEditor.UIServiceModule.dll_982DA722ACB3DB1E.mvfrm
Library/Bee/artifacts/mvdfrm/UnityEditor.UnityConnectModule.dll_EAD21589EE061DCC.mvfrm
Library/Bee/artifacts/mvdfrm/UnityEditor.dll_312202A65583C99F.mvfrm
Library/Bee/artifacts/mvdfrm/UnityEngine.AIModule.dll_81D113D5390E8BAA.mvfrm
Library/Bee/artifacts/mvdfrm/UnityEngine.AccessibilityModule.dll_6197ADAC50F77BD0.mvfrm
Library/Bee/artifacts/mvdfrm/UnityEngine.AndroidJNIModule.dll_BCEAE750F3992668.mvfrm
Library/Bee/artifacts/mvdfrm/UnityEngine.AnimationModule.dll_D93864CC2B20E676.mvfrm
Library/Bee/artifacts/mvdfrm/UnityEngine.AssetBundleModule.dll_7994467FD7660864.mvfrm
Library/Bee/artifacts/mvdfrm/UnityEngine.AudioModule.dll_0C62A3575022B9E8.mvfrm
Library/Bee/artifacts/mvdfrm/UnityEngine.ClothModule.dll_734B00522A3F98CC.mvfrm
Library/Bee/artifacts/mvdfrm/UnityEngine.ClusterInputModule.dll_6A6E8A9F9F8DF092.mvfrm
Library/Bee/artifacts/mvdfrm/UnityEngine.ClusterRendererModule.dll_40D1EA04F1028D0F.mvfrm
Library/Bee/artifacts/mvdfrm/UnityEngine.CoreModule.dll_A7AB07314A3ACF41.mvfrm
Library/Bee/artifacts/mvdfrm/UnityEngine.CrashReportingModule.dll_0C743BF175ACF579.mvfrm
Library/Bee/artifacts/mvdfrm/UnityEngine.DSPGraphModule.dll_F4C90BDF9F1D36BF.mvfrm
Library/Bee/artifacts/mvdfrm/UnityEngine.DirectorModule.dll_EF77AA762CBC659E.mvfrm
Library/Bee/artifacts/mvdfrm/UnityEngine.GIModule.dll_1A0D5CE2D4BD73C4.mvfrm
Library/Bee/artifacts/mvdfrm/UnityEngine.GameCenterModule.dll_E738316BB9DA1759.mvfrm
Library/Bee/artifacts/mvdfrm/UnityEngine.GridModule.dll_851C231F628F6538.mvfrm
Library/Bee/artifacts/mvdfrm/UnityEngine.HotReloadModule.dll_5A8122D2065401F8.mvfrm
Library/Bee/artifacts/mvdfrm/UnityEngine.IMGUIModule.dll_44C242BE16544DC9.mvfrm
Library/Bee/artifacts/mvdfrm/UnityEngine.ImageConversionModule.dll_ACC3E7B573274503.mvfrm
Library/Bee/artifacts/mvdfrm/UnityEngine.InputLegacyModule.dll_0AD9619E6F57BE55.mvfrm
Library/Bee/artifacts/mvdfrm/UnityEngine.InputModule.dll_72D86B07C65ADE8C.mvfrm
Library/Bee/artifacts/mvdfrm/UnityEngine.JSONSerializeModule.dll_C1AF36E85032DC5A.mvfrm
Library/Bee/artifacts/mvdfrm/UnityEngine.LocalizationModule.dll_A8BB54F23709E38B.mvfrm
Library/Bee/artifacts/mvdfrm/UnityEngine.ParticleSystemModule.dll_5F86853DE3BE8107.mvfrm
Library/Bee/artifacts/mvdfrm/UnityEngine.PerformanceReportingModule.dll_EC88B37118FFE500.mvfrm
Library/Bee/artifacts/mvdfrm/UnityEngine.Physics2DModule.dll_25DE54BCCC1DDE0B.mvfrm
Library/Bee/artifacts/mvdfrm/UnityEngine.PhysicsModule.dll_D4BEBC99C14231B9.mvfrm
Library/Bee/artifacts/mvdfrm/UnityEngine.ProfilerModule.dll_21BDE3ACC615ECAB.mvfrm
Library/Bee/artifacts/mvdfrm/UnityEngine.RuntimeInitializeOnLoadManagerInitializerModule.dll_986E4DE54F73E4D4.mvfrm
Library/Bee/artifacts/mvdfrm/UnityEngine.ScreenCaptureModule.dll_DB96E46D649F08BC.mvfrm
Library/Bee/artifacts/mvdfrm/UnityEngine.SharedInternalsModule.dll_30D5268AEA554053.mvfrm
Library/Bee/artifacts/mvdfrm/UnityEngine.SpriteMaskModule.dll_D064A3FBDB49ACD3.mvfrm
Library/Bee/artifacts/mvdfrm/UnityEngine.SpriteShapeModule.dll_92F573DA8D08406E.mvfrm
Library/Bee/artifacts/mvdfrm/UnityEngine.StreamingModule.dll_8DCD521C7AA89DB4.mvfrm
Library/Bee/artifacts/mvdfrm/UnityEngine.SubstanceModule.dll_6A786665C5FB9BC2.mvfrm
Library/Bee/artifacts/mvdfrm/UnityEngine.SubsystemsModule.dll_3B120A5DA99194E6.mvfrm
Library/Bee/artifacts/mvdfrm/UnityEngine.TLSModule.dll_4663E92FDF27EC4D.mvfrm
Library/Bee/artifacts/mvdfrm/UnityEngine.TerrainModule.dll_EF05380897007AA7.mvfrm
Library/Bee/artifacts/mvdfrm/UnityEngine.TerrainPhysicsModule.dll_60012E10FD017B94.mvfrm
Library/Bee/artifacts/mvdfrm/UnityEngine.TextCoreFontEngineModule.dll_537F9EEB7053A39F.mvfrm
Library/Bee/artifacts/mvdfrm/UnityEngine.TextCoreTextEngineModule.dll_9B67D55CFFD75CBD.mvfrm
Library/Bee/artifacts/mvdfrm/UnityEngine.TextRenderingModule.dll_04D656781BD688B1.mvfrm
Library/Bee/artifacts/mvdfrm/UnityEngine.TilemapModule.dll_8E019F89AEBD5BB0.mvfrm
Library/Bee/artifacts/mvdfrm/UnityEngine.UIElementsModule.dll_3F506BC5ACBDD0DD.mvfrm
Library/Bee/artifacts/mvdfrm/UnityEngine.UIElementsNativeModule.dll_81201CD5B11B2214.mvfrm
Library/Bee/artifacts/mvdfrm/UnityEngine.UIModule.dll_7D44B20295559156.mvfrm
Library/Bee/artifacts/mvdfrm/UnityEngine.UNETModule.dll_3A514F1A9749C4BA.mvfrm
Library/Bee/artifacts/mvdfrm/UnityEngine.UmbraModule.dll_87374F6FDD49655B.mvfrm
Library/Bee/artifacts/mvdfrm/UnityEngine.UnityAnalyticsModule.dll_7F25F6078FE5D303.mvfrm
Library/Bee/artifacts/mvdfrm/UnityEngine.UnityConnectModule.dll_D8319998E88E1E77.mvfrm
Library/Bee/artifacts/mvdfrm/UnityEngine.UnityCurlModule.dll_0C5505FD9B34D863.mvfrm
Library/Bee/artifacts/mvdfrm/UnityEngine.UnityTestProtocolModule.dll_50DCFE34871A1E51.mvfrm
Library/Bee/artifacts/mvdfrm/UnityEngine.UnityWebRequestAssetBundleModule.dll_F7513997A3000014.mvfrm
Library/Bee/artifacts/mvdfrm/UnityEngine.UnityWebRequestAudioModule.dll_6485074F9F6AAF98.mvfrm
Library/Bee/artifacts/mvdfrm/UnityEngine.UnityWebRequestModule.dll_BE62EF5F7E1BDF82.mvfrm
Library/Bee/artifacts/mvdfrm/UnityEngine.UnityWebRequestTextureModule.dll_8C35E4D226E9A86D.mvfrm
Library/Bee/artifacts/mvdfrm/UnityEngine.UnityWebRequestWWWModule.dll_662A1AB8EF971929.mvfrm
Library/Bee/artifacts/mvdfrm/UnityEngine.VFXModule.dll_C742819EB59555BA.mvfrm
Library/Bee/artifacts/mvdfrm/UnityEngine.VRModule.dll_D016D888371016CE.mvfrm
Library/Bee/artifacts/mvdfrm/UnityEngine.VehiclesModule.dll_673AA3F5A6E63539.mvfrm
Library/Bee/artifacts/mvdfrm/UnityEngine.VideoModule.dll_316C27C212B4D58D.mvfrm
Library/Bee/artifacts/mvdfrm/UnityEngine.VirtualTexturingModule.dll_A5ACD14489C9A29F.mvfrm
Library/Bee/artifacts/mvdfrm/UnityEngine.WindModule.dll_1DF9E259DB714DAA.mvfrm
Library/Bee/artifacts/mvdfrm/UnityEngine.XRModule.dll_02D59B8CC04A642C.mvfrm
Library/Bee/artifacts/mvdfrm/UnityEngine.dll_63C6497EB3F75684.mvfrm
Library/Bee/artifacts/mvdfrm/UnityEditor.LinuxStandalone.Extensions.dll_128550F7B07FB39A.mvfrm
Library/Bee/artifacts/mvdfrm/UnityEditor.WindowsStandalone.Extensions.dll_857CFB133836B4EA.mvfrm